# Blender v2.91.2 OBJ File: 'qccarte.blend'
# www.blender.org
o Plane.008
v 0.507222 -0.001218 0.378795
v 0.528617 -0.001218 0.257201
v 0.022077 -0.001218 0.503948
v 0.655360 -0.001218 0.066174
v 0.466131 -0.001218 0.436712
v 0.488727 -0.001218 0.407195
v 0.449127 -0.001218 0.477786
v 0.504125 -0.001218 0.401196
v 0.452597 -0.001218 0.459113
v 0.479293 -0.001218 0.422140
v 0.435965 -0.001218 0.505032
v 0.507165 -0.001218 0.393537
v 0.455263 -0.001218 0.446235
v 0.480469 -0.001218 0.414854
v 0.440496 -0.001218 0.489545
v 0.497358 -0.001218 0.402145
v 0.453658 -0.001218 0.470127
v 0.473644 -0.001218 0.428308
v 0.433298 -0.001218 0.518283
v 0.425814 -0.001218 0.626301
v 0.434216 -0.001218 0.567073
v 0.405111 -0.001218 0.684038
v 0.443076 -0.001218 0.546592
v 0.438202 -0.001218 0.640072
v 0.426101 -0.001218 0.590536
v 0.228505 -0.001218 0.729122
v 0.440610 -0.001218 0.534488
v 0.430144 -0.001218 0.635423
v 0.426990 -0.001218 0.581041
v 0.401240 -0.001218 0.686450
v 0.442560 -0.001218 0.560187
v 0.415692 -0.001218 0.682744
v 0.426331 -0.001218 0.618297
v 0.221652 -0.001218 0.670773
v 0.431807 -0.001218 0.599012
v 0.431936 -0.001218 0.592537
v 0.427205 -0.001218 0.606231
v 0.444653 -0.001218 0.667932
v 0.444037 -0.001218 0.653816
v 0.435205 -0.001218 0.678320
v 0.441306 -0.001218 0.648249
v 0.441420 -0.001218 0.673126
v 0.444532 -0.001218 0.662365
v 0.430108 -0.001218 0.680532
v 0.366874 -0.001218 0.706854
v 0.386666 -0.001218 0.717900
v 0.328070 -0.001218 0.724139
v 0.059985 -0.001218 0.683721
v 0.175299 -0.001218 0.659727
v -0.009852 -0.001218 0.547425
v 0.198103 -0.001218 0.665064
v -0.030663 -0.001218 0.660492
v 0.157715 -0.001218 0.650663
v 0.003130 -0.001218 0.513385
v 0.205590 -0.001218 0.664004
v -0.020939 -0.001218 0.660924
v 0.169675 -0.001218 0.648112
v -0.017713 -0.001218 0.544384
v 0.188006 -0.001218 0.659786
v -0.063872 -0.001218 0.632102
v 0.135689 -0.001218 0.643894
v 0.003471 -0.001218 0.504753
v 0.130268 -0.001218 0.690274
v 0.127573 -0.001218 0.663170
v 0.101650 -0.001218 0.700604
v 0.124362 -0.001218 0.656700
v 0.119314 -0.001218 0.707181
v 0.123329 -0.001218 0.674486
v 0.075785 -0.001218 0.699245
v -0.005825 -0.001218 0.671018
v 0.015524 -0.001218 0.679793
v -0.013009 -0.001218 0.674917
v 0.000850 -0.001218 0.722761
v 0.007865 -0.001218 0.718152
v 0.000172 -0.001218 0.720661
v 0.050699 -0.001218 0.725912
v 0.054410 -0.001218 0.729606
v 0.033196 -0.001218 0.736384
v 0.066517 -0.001218 0.708155
v 0.061602 -0.001218 0.240552
v 0.006501 -0.001218 0.422574
v 0.368546 -0.001218 0.062557
v 0.040681 -0.001218 0.478918
v 0.092284 -0.001218 0.227152
v -0.113565 -0.001218 0.281687
v 0.397886 -0.001218 0.027685
v 0.029366 -0.001218 0.505747
v 0.077390 -0.001218 0.241457
v -0.011260 -0.001218 0.400218
v 0.390596 -0.001218 0.034832
v 0.000554 -0.001218 0.448509
v 0.114335 -0.001218 0.196744
v 0.057891 -0.001218 0.242779
v 0.441855 -0.001218 -0.041193
v -0.051677 -0.001218 0.390605
v -0.025430 -0.001218 0.406371
v -0.094475 -0.001218 0.432097
v -0.146292 -0.001218 0.303660
v -0.182338 -0.001218 0.335000
v -0.132165 -0.001218 0.293792
v -0.061833 -0.001218 0.296453
v -0.095975 -0.001218 0.298464
v -0.030823 -0.001218 0.282365
v -0.105888 -0.001218 0.284707
v -0.041631 -0.001218 0.288738
v -0.082035 -0.001218 0.301484
v 0.055135 -0.001218 0.253178
v 0.015063 -0.001218 0.268890
v -0.011906 -0.001218 0.273838
v 0.032192 -0.001218 0.257679
v -0.023378 -0.001218 0.277654
v 0.023404 -0.001218 0.261943
v 0.000461 -0.001218 0.270917
v 0.041427 -0.001218 0.256994
v 0.177697 -0.001218 0.187578
v 0.157422 -0.001218 0.195292
v 0.350508 -0.001218 0.082348
v 0.141470 -0.001218 0.196465
v 0.337687 -0.001218 0.099625
v 0.169349 -0.001218 0.190093
v 0.356619 -0.001218 0.072229
v 0.260376 -0.001218 0.144720
v 0.229548 -0.001218 0.161229
v 0.299255 -0.001218 0.120159
v 0.203622 -0.001218 0.166128
v 0.271540 -0.001218 0.134005
v 0.245186 -0.001218 0.155882
v 0.316234 -0.001218 0.110787
v 0.187305 -0.001218 0.182892
v 0.263721 -0.001218 0.139139
v 0.235578 -0.001218 0.157884
v 0.310652 -0.001218 0.112789
v 0.221282 -0.001218 0.167257
v 0.286068 -0.001218 0.128424
v 0.253899 -0.001218 0.152985
v 0.328079 -0.001218 0.108784
v 0.427027 -0.001218 -0.004965
v 0.411338 -0.001218 0.022096
v 0.440033 -0.001218 -0.020843
v 0.404835 -0.001218 0.023548
v 0.434872 -0.001218 -0.013575
v 0.419630 -0.001218 0.004987
v 0.439378 -0.001218 -0.034820
v 0.453104 -0.001218 -0.049911
v 0.489594 -0.001218 -0.076189
v 0.545638 -0.001218 -0.027598
s off
f 87 54 50
f 2 4 138
f 4 146 138
f 146 145 144
f 144 94 143
f 144 143 139
f 146 144 139
f 8 12 16
f 12 1 16
f 1 2 135
f 146 139 141
f 146 141 137
f 138 146 137
f 6 16 1
f 1 14 6
f 137 142 138
f 138 140 86
f 14 1 135
f 18 10 14
f 138 86 90
f 2 138 82
f 5 18 14
f 13 5 14
f 2 82 117
f 138 90 82
f 82 121 117
f 119 2 117
f 13 14 135
f 2 119 136
f 136 128 124
f 128 132 124
f 2 136 134
f 2 134 135
f 7 17 9
f 9 13 15
f 136 124 134
f 134 126 122
f 126 130 122
f 15 7 9
f 13 135 133
f 134 122 135
f 127 131 123
f 13 133 129
f 15 13 83
f 135 127 133
f 127 123 133
f 133 125 129
f 11 15 83
f 116 13 115
f 23 27 21
f 27 19 21
f 19 11 57
f 13 116 83
f 13 129 115
f 115 120 116
f 21 31 23
f 29 21 19
f 11 83 57
f 118 92 84
f 19 57 55
f 116 118 84
f 83 116 88
f 35 36 25
f 25 29 34
f 29 19 34
f 84 88 116
f 88 80 107
f 80 93 107
f 37 35 25
f 33 37 25
f 88 107 81
f 83 88 81
f 114 110 112
f 107 114 81
f 20 33 45
f 33 25 34
f 41 24 28
f 33 34 45
f 39 41 43
f 41 28 32
f 28 20 22
f 19 55 34
f 114 112 108
f 108 113 89
f 113 109 89
f 109 111 103
f 109 103 89
f 103 105 89
f 114 108 89
f 105 101 95
f 89 105 95
f 41 32 44
f 114 89 81
f 38 43 42
f 40 43 44
f 40 42 43
f 22 32 28
f 43 41 44
f 101 106 95
f 45 46 30
f 30 22 20
f 106 102 95
f 102 104 100
f 104 85 100
f 100 98 102
f 98 99 97
f 95 96 89
f 98 97 95
f 47 45 34
f 45 30 20
f 34 26 47
f 59 51 55
f 102 98 95
f 81 91 83
f 59 55 57
f 57 49 59
f 61 53 57
f 68 64 66
f 67 63 65
f 63 68 65
f 48 69 68
f 69 65 68
f 68 66 48
f 77 79 76
f 79 48 76
f 48 66 50
f 66 61 50
f 74 78 76
f 75 73 74
f 71 75 74
f 74 76 71
f 76 48 71
f 56 72 70
f 70 71 50
f 71 48 50
f 60 52 56
f 56 70 50
f 60 56 50
f 87 3 54
f 3 62 54
f 57 83 61
f 83 87 61
f 50 61 87
f 54 58 50
