# Blender v2.91.2 OBJ File: 'qccarte.blend'
# www.blender.org
o Plane.017
v -0.522954 -0.001205 1.114398
v -0.730901 -0.001205 0.913367
v -0.867287 -0.001205 0.961243
v -0.743297 -0.001205 0.913950
v -0.614626 -0.001205 0.905406
v -0.665495 -0.001205 0.895780
v -0.549219 -0.001205 0.917269
v -0.691488 -0.001205 0.895627
v -0.603543 -0.001205 0.915252
v -0.642483 -0.001205 0.897798
v -0.490049 -0.001205 0.912949
v -0.709517 -0.001205 0.890394
v -0.607594 -0.001205 0.906788
v -0.651752 -0.001205 0.903872
v -0.498573 -0.001205 0.912686
v -0.683710 -0.001205 0.891790
v -0.571535 -0.001205 0.902095
v -0.622404 -0.001205 0.909989
v -0.501655 -0.001205 0.980311
v -0.707255 -0.001205 0.902874
v -0.610737 -0.001205 0.905352
v -0.658623 -0.001205 0.903554
v -0.505071 -0.001205 0.906031
v -0.687599 -0.001205 0.894827
v -0.575051 -0.001205 0.901405
v -0.634867 -0.001205 0.903707
v -0.485788 -0.001205 0.915504
v -0.696122 -0.001205 0.890836
v -0.605941 -0.001205 0.913070
v -0.645999 -0.001205 0.897107
v -0.494311 -0.001205 0.914122
v -0.671993 -0.001205 0.893226
v -0.553108 -0.001205 0.916578
v -0.617769 -0.001205 0.909562
v -0.502612 -0.001205 0.993676
v -0.673859 -0.001205 1.114588
v -0.940004 -0.001205 0.999159
v -0.890412 -0.001205 0.991944
v -0.916512 -0.001205 1.001516
v -0.871021 -0.001205 0.978644
v -0.932918 -0.001205 1.002201
v -0.874752 -0.001205 0.985294
v -0.904581 -0.001205 0.998594
v -0.867663 -0.001205 0.970503
v -0.842942 -0.001205 0.949525
v -0.859401 -0.001205 0.954266
v -0.817536 -0.001205 0.922046
v -0.863903 -0.001205 0.957196
v -0.818310 -0.001205 0.929076
v -0.848562 -0.001205 0.952828
v -0.814525 -0.001205 0.917252
v -0.789348 -0.001205 0.909637
v -0.806782 -0.001205 0.910089
v -0.785334 -0.001205 0.907320
v -0.765434 -0.001205 0.906907
v -0.775384 -0.001205 0.906368
v -0.527145 -0.001205 0.917801
v -0.535573 -0.001205 0.914553
v -0.512753 -0.001205 0.910239
v -0.544633 -0.001205 0.915165
v -0.520322 -0.001205 0.910106
v -0.530986 -0.001205 0.918786
v -0.509285 -0.001205 0.907762
v -0.489621 -0.001205 0.957786
v -0.497769 -0.001205 0.941118
v -0.477000 -0.001205 0.961779
v -0.486560 -0.001205 0.929429
v -0.480701 -0.001205 0.958664
v -0.493695 -0.001205 0.955043
v -0.505729 -0.001205 0.968622
v -0.494906 -0.001205 0.962405
v -0.483157 -0.001205 0.971598
v -0.498454 -0.001205 0.962904
v -0.503464 -0.001205 1.052919
v -0.505834 -0.001205 1.020129
v -0.517539 -0.001205 1.102618
v -0.497327 -0.001205 1.008393
v -0.511971 -0.001205 1.082547
v -0.498312 -0.001205 1.042674
v -1.044194 -0.001205 1.039031
v -0.506493 -0.001205 1.001221
v -0.503989 -0.001205 1.073884
v -0.505987 -0.001205 1.027674
v -1.135710 -0.001205 1.102610
v -0.497853 -0.001205 1.012956
v -0.513988 -0.001205 1.093820
v -0.498465 -0.001205 1.047610
v -1.099209 -0.001205 1.085384
v -1.134934 -0.001205 1.108246
v -1.009432 -0.001205 1.014622
v -1.121731 -0.001205 1.091020
v -1.063744 -0.001205 1.068099
v -1.121344 -0.001205 1.110934
v -1.112541 -0.001205 1.090661
v -0.952538 -0.001205 1.004095
v -1.124191 -0.001205 1.104781
v -1.026067 -0.001205 1.029249
v -1.126520 -0.001205 1.097592
v -1.071380 -0.001205 1.081401
v -1.050764 -0.001205 1.052540
v -1.100699 -0.001205 1.110078
v -1.119595 -0.001205 1.087993
v -0.982290 -0.001205 1.016814
v -1.130727 -0.001205 1.108325
v -1.036808 -0.001205 1.034886
v -1.136163 -0.001205 1.099065
v -1.077917 -0.001205 1.084428
v -1.058522 -0.001205 1.057431
v -1.136552 -0.001205 1.111014
v -1.107299 -0.001205 1.091776
v -0.950371 -0.001205 0.998831
v -1.125161 -0.001205 1.101754
v -1.017191 -0.001205 1.020258
v -1.122572 -0.001205 1.095082
v -1.066915 -0.001205 1.075786
v -1.049343 -0.001205 1.045413
v -0.786320 -0.001205 1.115753
v -1.073202 -0.001205 1.109939
v -1.049876 -0.001205 1.114529
v -1.090834 -0.001205 1.109491
s off
f 50 44 40
f 36 1 76
f 76 86 78
f 78 82 74
f 74 87 79
f 74 79 83
f 36 76 78
f 78 74 83
f 75 85 81
f 85 77 81
f 78 83 36
f 83 75 9
f 36 83 9
f 117 36 2
f 118 119 99
f 119 117 39
f 119 115 99
f 93 101 110
f 101 120 110
f 93 110 96
f 120 118 107
f 115 119 92
f 9 75 81
f 81 35 19
f 81 19 70
f 33 70 7
f 109 93 104
f 109 104 89
f 70 33 81
f 81 33 9
f 104 93 96
f 118 99 107
f 70 73 65
f 71 72 64
f 72 66 68
f 72 68 64
f 96 110 94
f 73 71 69
f 71 64 69
f 112 96 114
f 106 84 98
f 84 112 98
f 120 107 88
f 73 69 65
f 114 98 112
f 102 91 94
f 91 114 94
f 65 67 31
f 67 27 31
f 27 11 31
f 15 23 63
f 15 63 59
f 65 31 15
f 94 114 96
f 88 110 120
f 65 15 59
f 59 61 57
f 59 57 65
f 70 65 62
f 62 65 57
f 62 58 60
f 62 60 7
f 7 70 62
f 108 92 100
f 100 92 119
f 39 117 43
f 33 17 9
f 17 25 9
f 36 9 18
f 43 117 38
f 80 116 100
f 97 105 100
f 105 80 100
f 90 113 103
f 113 97 103
f 29 13 21
f 119 39 41
f 36 18 14
f 29 21 34
f 21 5 34
f 9 29 34
f 117 42 38
f 103 97 119
f 97 100 119
f 37 111 95
f 95 103 41
f 41 103 119
f 34 18 9
f 37 95 41
f 42 117 40
f 26 10 14
f 10 30 14
f 18 26 14
f 22 6 32
f 22 32 24
f 32 16 24
f 22 24 8
f 8 28 20
f 28 12 20
f 22 8 20
f 22 20 2
f 14 22 36
f 22 2 36
f 4 55 52
f 55 56 52
f 56 54 52
f 52 53 51
f 51 47 49
f 52 51 49
f 4 52 49
f 4 49 117
f 49 45 117
f 2 4 117
f 50 46 44
f 46 48 44
f 45 50 40
f 40 117 45
f 48 3 44
